{"failedCount":0,"prefixedPath":"classpath:karate\/GetUser\/GetUsers.feature","packageQualifiedName":"karate.GetUser.GetUsers","loopIndex":-1,"relativePath":"karate\/GetUser\/GetUsers.feature","scenarioResults":[{"sectionIndex":0,"stepResults":[{"result":{"nanos":17790500,"millis":17.7905,"status":"passed"},"step":{"line":4,"prefix":"Given","index":0,"text":"url 'https:\/\/reqres.in\/api\/users?page=2'"}},{"result":{"nanos":57831750,"millis":57.83175,"status":"passed"},"step":{"line":5,"prefix":"And","index":1,"text":"headers {Accept:'application\/json', Content-Type:'application\/json'}"}},{"result":{"nanos":741816875,"millis":741.816875,"status":"passed"},"step":{"line":6,"prefix":"When","index":2,"text":"method get"},"stepLog":"15:00:20.308 request:\n1 > GET https:\/\/reqres.in\/api\/users?page=2\n1 > Accept: application\/json\n1 > Content-Type: application\/json\n1 > Host: reqres.in\n1 > Connection: Keep-Alive\n1 > User-Agent: Apache-HttpClient\/4.5.13 (Java\/10.0.1)\n1 > Accept-Encoding: gzip,deflate\n\n\n15:00:20.681 response time in milliseconds: 366\n1 < 200\n1 < Date: Sun, 19 Nov 2023 07:00:20 GMT\n1 < Content-Type: application\/json; charset=utf-8\n1 < Transfer-Encoding: chunked\n1 < Connection: keep-alive\n1 < Report-To: {\"group\":\"heroku-nel\",\"max_age\":3600,\"endpoints\":[{\"url\":\"https:\/\/nel.heroku.com\/reports?ts=1700355404&sid=c4c9725f-1ab0-44d8-820f-430df2718e11&s=vD1fbJUyZU4hsipIVjlBFHNnBPTgeQwlj1sU4ZeeGWM%3D\"}]}\n1 < Reporting-Endpoints: heroku-nel=https:\/\/nel.heroku.com\/reports?ts=1700355404&sid=c4c9725f-1ab0-44d8-820f-430df2718e11&s=vD1fbJUyZU4hsipIVjlBFHNnBPTgeQwlj1sU4ZeeGWM%3D\n1 < Nel: {\"report_to\":\"heroku-nel\",\"max_age\":3600,\"success_fraction\":0.005,\"failure_fraction\":0.05,\"response_headers\":[\"Via\"]}\n1 < X-Powered-By: Express\n1 < Access-Control-Allow-Origin: *\n1 < Etag: W\/\"406-ut0vzoCuidvyMf8arZpMpJ6ZRDw\"\n1 < Via: 1.1 vegur\n1 < Cache-Control: max-age=14400\n1 < CF-Cache-Status: HIT\n1 < Age: 6821\n1 < Vary: Accept-Encoding\n1 < Server: cloudflare\n1 < CF-RAY: 8286935d19dc7134-KUL\n{\"page\":2,\"per_page\":6,\"total\":12,\"total_pages\":2,\"data\":[{\"id\":7,\"email\":\"michael.lawson@reqres.in\",\"first_name\":\"Michael\",\"last_name\":\"Lawson\",\"avatar\":\"https:\/\/reqres.in\/img\/faces\/7-image.jpg\"},{\"id\":8,\"email\":\"lindsay.ferguson@reqres.in\",\"first_name\":\"Lindsay\",\"last_name\":\"Ferguson\",\"avatar\":\"https:\/\/reqres.in\/img\/faces\/8-image.jpg\"},{\"id\":9,\"email\":\"tobias.funke@reqres.in\",\"first_name\":\"Tobias\",\"last_name\":\"Funke\",\"avatar\":\"https:\/\/reqres.in\/img\/faces\/9-image.jpg\"},{\"id\":10,\"email\":\"byron.fields@reqres.in\",\"first_name\":\"Byron\",\"last_name\":\"Fields\",\"avatar\":\"https:\/\/reqres.in\/img\/faces\/10-image.jpg\"},{\"id\":11,\"email\":\"george.edwards@reqres.in\",\"first_name\":\"George\",\"last_name\":\"Edwards\",\"avatar\":\"https:\/\/reqres.in\/img\/faces\/11-image.jpg\"},{\"id\":12,\"email\":\"rachel.howell@reqres.in\",\"first_name\":\"Rachel\",\"last_name\":\"Howell\",\"avatar\":\"https:\/\/reqres.in\/img\/faces\/12-image.jpg\"}],\"support\":{\"url\":\"https:\/\/reqres.in\/#support-heading\",\"text\":\"To keep ReqRes free, contributions towards server costs are appreciated!\"}}\n"},{"result":{"nanos":547875,"millis":0.547875,"status":"passed"},"step":{"line":7,"prefix":"Then","index":3,"text":"status 200"}},{"result":{"nanos":22895292,"millis":22.895292,"status":"passed"},"step":{"comments":["#    And def name = response[0].name"],"line":9,"prefix":"And","index":4,"text":"def responseArray = response"}}],"executorName":"pool-1-thread-2","line":3,"name":"To get the list of user","description":"","durationMillis":840.882292,"startTime":1700377219846,"failed":false,"refId":"[1:3]","endTime":1700377220718,"exampleIndex":-1}],"callDepth":0,"name":"","description":"","resultDate":"2023-11-19 03:00:21 PM","durationMillis":840.882292,"passedCount":1}